<?xml version="1.0" encoding="utf-8"?>
<!-- Generated by IcoMoon.io -->
<!DOCTYPE svg PUBLIC "-//W3C//DTD SVG 1.1//EN" "http://www.w3.org/Graphics/SVG/1.1/DTD/svg11.dtd">
<svg version="1.1" xmlns="http://www.w3.org/2000/svg" xmlns:xlink="http://www.w3.org/1999/xlink" width="870" height="1024" viewBox="0 0 870 1024">
<g id="icomoon-ignore">
</g>
<path d="M588.972 447.939h-307.888c-10.090-0.005-18.884-5.55-23.506-13.758l-85.251-152.956c-2.12-3.821-3.368-8.379-3.368-13.228 0-0.036 0-0.073 0-0.109 0-146.979 119.154-266.133 266.139-266.133s266.139 119.154 266.139 266.139c-0.034 4.9-1.331 9.49-3.58 13.47l-85.109 152.683c-4.692 8.343-13.486 13.888-23.575 13.893zM296.942 393.49h276.173l73.814-132.473c0-117.030-94.871-211.901-211.901-211.901s-211.901 94.871-211.901 211.901zM777.584 1023.86c14.128-0.060 25.71-10.91 26.938-24.839l65.386-720.495c0.078-0.845 0.118-1.701 0.118-2.566 0-7.115-2.707-13.597-7.147-18.474-4.918-5.416-12.015-8.817-19.907-8.819h-173.45c-15.074 0-27.295 12.22-27.295 27.295s12.22 27.295 27.295 27.295h143.7l-60.343 666.014h-635.702l-60.343-666.014h143.7c15.074 0 27.295-12.22 27.295-27.295s-12.22-27.295-27.295-27.295h-173.45c-7.892 0.001-14.989 3.403-19.907 8.819-4.44 4.877-7.147 11.359-7.147 18.473 0 0.865 0.040 1.721 0.11 2.458l65.263 720.714c1.327 13.817 12.923 24.633 27.075 24.728h685.099zM435.028 290.767c-0.052 0.001-0.114 0.001-0.176 0.001-2.759 0-5.323-0.839-7.449-2.276-3.571-2.481-5.91-6.613-5.91-11.292 0-2.841 0.862-5.481 2.34-7.671l69.293-102.534c2.475-3.566 6.548-5.872 11.16-5.872 2.856 0 5.505 0.884 7.689 2.393 3.581 2.471 5.928 6.602 5.928 11.282 0 2.847-0.869 5.491-2.355 7.682l-69.293 102.394c-2.503 3.57-6.594 5.878-11.224 5.894z"></path>
</svg>
