<?xml version="1.0" encoding="utf-8"?>
<!-- Generated by IcoMoon.io -->
<!DOCTYPE svg PUBLIC "-//W3C//DTD SVG 1.1//EN" "http://www.w3.org/Graphics/SVG/1.1/DTD/svg11.dtd">
<svg version="1.1" xmlns="http://www.w3.org/2000/svg" xmlns:xlink="http://www.w3.org/1999/xlink" width="1170" height="1024" viewBox="0 0 1170 1024">
<g id="icomoon-ignore">
</g>
<path d="M37.187 454.091c27.651 58.236 63.251 108.006 106.123 150.443q143.854 146.371 289.499 290.847l102.35 102.252c11.821 14.693 29.222 24.48 48.938 26.123 20.436-1.775 38.010-11.654 49.928-26.315q183.944-184.215 368.043-368.136c57.319-53.894 103.682-118.698 135.883-191.187 39.59-96.821 41.686-177.353 7.991-250.037-45.433-102.175-141.29-174.517-255.102-185.751-105.721-13.1-202.482 37.49-293.882 147.898-4.24 5.085-8.334 10.316-12.396 15.661-4.744-6.32-9.569-12.509-14.621-18.488-87.615-104.608-188.746-155.474-294.052-144.199-72.118 7.62-135.586 39.716-183.015 87.699-77.652 76.044-106.732 166.014-86.571 267.421 4.697 22.959 10.269 42.557 17.112 61.549zM1077.271 409.057c-30.191 67.698-71.585 125.215-122.41 172.778q-184.46 184.26-368.251 368.278c-0.747 0.78-1.478 1.43-2.096 2.096l-1.625-1.625-102.463-102.35q-145.028-144.784-289-290.364c-30.161-30.115-56.361-64.184-77.759-101.367l42.928-2.347c6.788-0.002 12.732-3.611 16.020-9.015l53.512-89.257 58.258 247.995c0.422 1.337 0.923 2.488 1.528 3.573 0.278 0.823 0.613 1.584 0.992 2.318 1.163 1.754 2.636 3.33 4.338 4.619 0.573 0.373 1.191 0.715 1.832 1.015 1.333 0.83 2.754 1.498 4.261 1.973 0.436 0.035 0.664 0.343 0.989 0.425 1.286 0.299 2.764 0.471 4.281 0.471s2.994-0.172 4.413-0.496c0.193 0.025 0.42-0.267 0.729-0.364 1.646-0.507 3.078-1.181 4.392-2.024 0.66-0.301 1.262-0.631 1.842-0.993 1.684-1.289 3.167-2.875 4.348-4.677 0.343-0.659 0.655-1.389 0.925-2.138 0.64-1.163 1.154-2.342 1.526-3.583l0.29-1.173 75.966-323.457 59.98 255.37s0 0.114 0 0.179c0.097 0.422 0.374 0.78 0.504 1.202 0.573 1.893 1.37 3.543 2.381 5.036 0.405 0.47 0.851 0.952 1.32 1.41 1.052 1.235 2.231 2.306 3.534 3.213 0.353 0.235 0.515 0.543 0.824 0.722s0.699 0.114 1.023 0.276c2.46 1.41 5.393 2.274 8.522 2.355 1.541-0.003 3.014-0.181 4.428-0.513-2.779 1.054-0.969 0.215 0.846-0.616 7.072-3.386 9.16-5.417 10.708-7.829s0.045-0.074 0.045-0.074l51.37-85.844h164.604c10.318 0 18.683-8.365 18.683-18.683s-8.365-18.683-18.683-18.683h-175.099c-0.836 0.118-1.556 0.265-2.261 0.452-1.27 0.116-2.549 0.385-3.776 0.771-1.108 0.402-2.181 0.918-3.186 1.533-1.005 0.547-1.935 1.177-2.8 1.884-0.963 0.849-1.845 1.812-2.613 2.864-0.53 0.547-0.993 1.077-1.42 1.636l-33.105 55.275-67.616-287.927c-0.404-1.113-0.853-2.062-1.378-2.96-0.373-1.166-0.862-2.24-1.447-3.252-0.746-0.952-1.605-1.867-2.547-2.688-0.768-0.852-1.576-1.598-2.449-2.262-1.076-0.643-2.274-1.192-3.53-1.616-0.843-0.441-1.678-0.829-2.546-1.153-0.303-0.041-0.482-0.041-0.677-0.041-1.114-0.067-2.417-0.106-3.728-0.106s-2.614 0.038-3.907 0.114c0.111-0.012 0.031-0.014-0.049-0.014s-0.159 0.002-0.238 0.007c-0.815 0.31-1.506 0.633-2.168 1-1.508 0.451-2.891 1.097-4.165 1.901-0.691 0.559-1.371 1.192-1.995 1.877-1.104 0.944-2.065 1.972-2.901 3.099-0.533 0.898-0.993 1.884-1.361 2.915-0.55 0.98-1.017 1.973-1.383 3.012l-76.246 324.566-50.606-215.308c-2.021-8.328-9.414-14.416-18.228-14.416-6.79 0-12.736 3.612-16.021 9.020l-71.789 119.8h-51.5c-8.987-20.345-16.671-44.258-21.855-69.090-16.144-81.429 6.081-149.013 67.344-209.107 37.051-37.591 86.609-62.766 141.92-68.775 7.319-0.77 14.604-1.159 21.978-1.164 93.146 0 168.105 66.154 214.601 121.634 9.114 10.869 17.416 22.452 25.994 34.49l12.737 17.513c5.623 8.27 14.989 13.631 25.607 13.631 0.502 0 1.001-0.012 1.497-0.036 10.841 0 20.54-5.191 26.692-13.238l13.544-18.228c8.123-11.080 15.937-21.623 24.223-31.663 76.112-91.952 152.322-133.964 232.626-124.135 91.63 8.393 168.011 66.088 202.98 146.033 26.527 57.074 24.058 118.354-7.053 194.303z"></path>
</svg>
