<?xml version="1.0" encoding="utf-8"?>
<!-- Generated by IcoMoon.io -->
<!DOCTYPE svg PUBLIC "-//W3C//DTD SVG 1.1//EN" "http://www.w3.org/Graphics/SVG/1.1/DTD/svg11.dtd">
<svg version="1.1" xmlns="http://www.w3.org/2000/svg" xmlns:xlink="http://www.w3.org/1999/xlink" width="611" height="1024" viewBox="0 0 611 1024">
<g id="icomoon-ignore">
</g>
<path d="M611.061 4.348c0 4.405-0.252 8.781-0.393 13.186 0.088 1.328 0.137 2.88 0.137 4.443 0 3.072-0.193 6.098-0.567 9.068-1.002 4.5 0.597 10.868-0.328 15.133s0.533 10.857-0.393 15.093v7.35c0.117 1.901 0.184 4.124 0.184 6.362 0 5.137-0.352 10.192-1.035 15.141l0.065 9.47c0.047 1.093 0.075 2.375 0.075 3.664 0 4.308-0.302 8.546-0.887 12.692-0.758 3.282 0.364 8.276-0.338 11.53v11.615c-0.645 2.805 0.337 7.463-0.393 10.857-2.805 12.288 0.252 26.764-2.329 38.716 0 4.124-0.252 8.248-0.393 12.4-0.926 4.32 0.281 9.511-0.757 14.308-2.805 13.158 0 30.215-2.805 43.373 0 4.657-0.252 9.286-0.393 14.027-2.16 9.959-0.168 21.883-2.3 31.758 0 3.872-0.281 7.743-0.393 11.615q-1.767 21.462-3.479 42.98c-1.010 4.461-0.449 9.454-1.571 14.308q-3.086 20.732-6.172 41.437c-1.627 7.21-0.814 14.869-2.329 21.686-1.824 8.22-0.617 16.833-2.329 24.772q-4.236 56.11-8.416 112.219v5.807c-2.020 9.286-0.309 20.508-2.329 29.822q-1.15 22.444-2.3 44.888c-0.814 3.647-0.393 8.725-1.178 12.372v6.593c-0.842 3.844 0.168 8.416-0.757 12.793-2.974 13.579-0.168 30.159-3.114 43.737-0.926 4.32 0 8.949-0.757 12.793l-1.178 25.558c-2.637 12.148 0 26.512-2.805 38.716-0.982 4.545 0 9.454-0.786 13.55-0.982 4.573 0 9.454-0.786 13.55l-0.757 22.444c-0.505 2.3 0.196 6.144-0.393 8.921-2.329 10.717 0.365 24.155-1.936 34.844v8.136c-1.627 7.519 0 16.833-1.543 24.38v8.136c-1.094 5.078 0.421 11.222-0.786 16.665-1.094 5.050 0.421 11.082-0.757 16.636-0.844 5.41-1.326 11.649-1.326 18 0 2.115 0.053 4.219 0.159 6.308-0.455 0.020-0.967 0.278-1.515 0.453-6.206 0.871-13.331 1.362-20.57 1.362-2.587 0-5.16-0.063-7.717-0.187-3.174 1.024-6.962 3.605-10.469 5.036-6.42 2.266-14.349 4.41-22.473 6.011-14.055 3.471-28.475 2.265-41.801 5.239l-14.027 0.757c-12.344 2.805-26.989 0.337-39.501 3.086-4.685 1.038-9.735 0-14.027 0.786-5.162 1.15-10.773-0.252-15.486 0.786l-17.815 0.393c-2.637 0.561-6.93-0.309-10.072 0.365-3.545 0.554-7.634 0.87-11.796 0.87-1.298 0-2.589-0.031-3.872-0.092l-8.852 0.007c-4.116 0.481-8.884 0.756-13.717 0.756-3.348 0-6.665-0.132-9.946-0.39-1.544 0.176-3.849 0.261-6.175 0.261-3.811 0-7.568-0.227-11.26-0.67l-29.377-0.742c-8.276-1.824-17.703 0.365-26.315-1.543-5.050-1.122-10.857 0-16.272-1.15l-54.987-5.415c-7.126-1.683-15.206-1.683-22.079-3.9s-13.635-3.535-20.508-5.807c-3.254-1.066-6.761-2.974-10.072-3.844l-6.593-0.393c-4.96-0.797-10.678-1.252-16.502-1.252-1.409 0-2.811 0.027-4.207 0.079 0.285-1.846 0.333-4.004 0.333-6.173 0-6.839-0.476-13.566-1.397-20.151-1.147-5.048 0.48-11.332-0.67-16.662v-8.136c-0.786-5.19 0-11.923-1.178-17.029v-8.136c-2.16-10.044 0.252-22.079-1.936-32.123 0-5.302-0.252-10.605-0.365-15.879-0.421-1.908 0-5.358-0.393-7.743-2.637-12.176 0.309-26.568-2.329-38.716-0.252-7.631-0.505-15.234-0.786-22.865-0.954-4.461 0.309-9.763-0.757-14.701s0.309-10.072-0.786-15.093c-0.393-1.796 0-5.078-0.393-7.378-2.469-11.446 0.168-24.941-2.3-36.471l-1.908-42.475c-1.796-8.164-0.196-18.18-1.936-26.343v-6.2c-1.515-6.845 0-14.476-1.571-21.658-0.982-4.573 0-9.735-1.15-14.729-0.982-4.489 0-9.735-1.15-14.729-3.282-14.869-1.038-31.954-4.264-46.823l-3.872-49.966q-6.172-66.995-12.4-133.962c0-2.974-0.252-5.948-0.393-8.921-1.908-8.725-0.814-19.133-2.805-27.886q-4.685-63.656-9.314-127.369v-6.2c-2.104-9.707-0.224-21.294-2.3-30.86v-5.807c-0.882-5.868-1.386-12.64-1.386-19.529 0-2.663 0.075-5.309 0.224-7.936 0.042-0.653 0.075-1.843 0.075-3.041 0-2.755-0.176-5.47-0.517-8.132q-0.135-42.665-0.332-85.644c-1.15-5.274-0.673-10.997-1.936-16.636-1.683-7.404-2.7-15.94-2.805-24.696 0.556-0.066 1.212-0.060 1.869-0.060 5.627 0 11.152-0.434 16.545-1.271 3.524-0.821 8.91 0.469 12.557-0.316h65.817c9.034 0 18.236 0.393 26.736 0.393 1.96-0.142 4.246-0.223 6.55-0.223 3.831 0 7.609 0.224 11.323 0.659l10.378-0.043c1.774-0.105 3.848-0.165 5.936-0.165 5.010 0 9.94 0.346 14.766 1.014 3.201 0.722 8.167-0.4 11.449 0.301l20.115 0.393c4.741 1.010 10.352-0.337 15.514 0.786 9.37 2.020 19.779 0.701 29.037 2.805 3.254 0.701 7.659-0.196 10.436 0.393 2.844 0.288 6.146 0.452 9.487 0.452 4.568 0 9.065-0.307 13.471-0.901l6.079 0.057c1.61 0.096 3.492 0.151 5.386 0.151 4.651 0 9.224-0.33 13.699-0.968l17.302-0.333c13.13-2.805 28.644 0.505 41.83-2.329 2.805-0.617 6.873 0 9.286-0.393 3.142-0.673 7.406 0.196 10.072-0.365h17.815c4.632-0.592 9.992-0.929 15.43-0.929s10.798 0.338 16.058 0.993c6.947 1.563 16.205-1.214 23.359 0.301l40.651 0.786c3.17 0.673 7.996-0.393 11.643 0.393 3.468 0.511 7.471 0.803 11.543 0.803 0.972 0 1.941-0.017 2.905-0.050l9.539 0.004c4.359 0.563 9.401 0.884 14.518 0.884s10.159-0.321 15.107-0.944l47.104 0.061z"></path>
</svg>
