<?xml version="1.0" encoding="utf-8"?>
<!-- Generated by IcoMoon.io -->
<!DOCTYPE svg PUBLIC "-//W3C//DTD SVG 1.1//EN" "http://www.w3.org/Graphics/SVG/1.1/DTD/svg11.dtd">
<svg version="1.1" xmlns="http://www.w3.org/2000/svg" xmlns:xlink="http://www.w3.org/1999/xlink" width="1025" height="1024" viewBox="0 0 1025 1024">
<g id="icomoon-ignore">
</g>
<path d="M256.366 64.458h512.732v127.939h64.067v-127.939c-0.083-35.33-28.729-63.942-64.064-63.969h-512.735c-35.348 0.028-64.005 28.633-64.116 63.959v127.95h64.116v-127.939zM961.398 256.366h-897.331c-35.327 0.055-63.956 28.65-64.067 63.959v319.858c0.111 35.319 28.74 63.914 64.062 63.969h128.188v255.878c0.111 35.336 28.768 63.942 64.113 63.969h512.735c35.338-0.028 63.984-28.639 64.067-63.961v-255.886h128.232c35.338-0.028 63.984-28.639 64.067-63.961v-319.855c-0.083-35.33-28.729-63.942-64.064-63.969zM769.099 960.031h-512.732v-447.786h512.732v447.786zM897.282 448.275c-35.266-0.083-63.823-28.691-63.823-63.969 0-35.329 28.64-63.969 63.969-63.969s63.969 28.64 63.969 63.969c-0.083 35.347-28.757 63.97-64.116 63.97 0 0 0 0 0 0zM320.433 576.214h256.366v63.969h-256.366v-63.969zM320.433 704.153h384.549v63.969h-384.549v-63.969zM320.433 832.092h384.549v63.969h-384.549v-63.969z"></path>
</svg>
