<?xml version="1.0" encoding="utf-8"?>
<!-- Generated by IcoMoon.io -->
<!DOCTYPE svg PUBLIC "-//W3C//DTD SVG 1.1//EN" "http://www.w3.org/Graphics/SVG/1.1/DTD/svg11.dtd">
<svg version="1.1" xmlns="http://www.w3.org/2000/svg" xmlns:xlink="http://www.w3.org/1999/xlink" width="528" height="1024" viewBox="0 0 528 1024">
<g id="icomoon-ignore">
</g>
<path d="M65.172 160.265c-8.665-1.028-16.174-5.305-21.393-11.559-1.337-4.082-2.083-8.717-2.083-13.526 0-5.748 1.066-11.248 3.011-16.311l-0.105-17.58c0-28.218-4.41-53.84 12.504-66.093 21.654-12.358 46.902-21.427 73.743-25.732 10.102-2.374 17.861-0.784 27.183-2.961 19.119-4.215 43.29-1.005 63.414-5.359h25.12c2.277-0.34 4.905-0.534 7.578-0.534s5.301 0.194 7.87 0.569l18.464-0.9c6.71 1.116 14.444 1.755 22.326 1.758 4.677-0.216 10.156-0.339 15.664-0.339 48.748 0 95.245 9.64 137.688 27.118 9.399 3.146 19.011 11.021 25.153 21.222 0.887 3.926 1.321 8.173 1.321 12.523 0 2.276-0.119 4.525-0.351 6.74l0.023 45.302c1.775 6.030 2.797 12.957 2.797 20.124 0 4.239-0.357 8.394-1.044 12.437-5.389 6.657-13.113 11.764-22.008 13.805 0.354 3.065 0.577 14.592 1.526 16.155 5.88 7.533 12.024 14.235 18.655 20.421 6.047 7.993 12.717 15.863 17.992 24.209 2.596 4.159 3.294 9.462 6.224 13.425 2.149 2.791 6.978 4.075 8.932 7.145 0.672 2.682 1.058 5.762 1.058 8.932s-0.386 6.249-1.113 9.194c2.064 10.595 10.131 22.429 12.559 32.784 0.028 0.366 0.045 0.792 0.045 1.223 0 3.927-1.352 7.539-3.616 10.395-0.064 1.685-0.116 3.699-0.116 5.725 0 10.341 1.345 20.368 3.87 29.915-1.493 2.949-3.311 6.207-5.594 9.079-0.227 2.305-0.534 4.677-0.813 7.077l-6.28 15.184c-0.726 7.229 0.921 19.705 0.921 28.581v413.502c-0.598 4.712-0.939 10.163-0.939 15.694 0 0.772 0.007 1.543 0.020 2.312 1.252 1.969 2.44 3.718 3.712 5.399 3.595 10.126 5.739 21.99 5.739 34.356 0 3.573-0.179 7.104-0.528 10.585-2.365 10.028-2.141 20.243-5.323 29.956-14.346 43.513-37.736 86.524-81.305 100.926-22.329 7.313-53.031 1.451-77.704 7.117h-25.901c-9.279 1.312-19.998 2.061-30.891 2.061-7.372 0-14.665-0.343-21.861-1.014l-16.020 1.856c-5.393 0.219-11.723 0.344-18.082 0.344-12.191 0-24.274-0.459-36.234-1.362-25.593-3.057-56.379-0.35-81.471-6.128l-28.553-2.791c-18.209-6.576-33.941-15.665-47.718-27.038-4.053-4.247-7.892-9.222-11.135-14.598-4.254-5.701-9.948-10.53-13.632-16.419-14.979-23.438-23.875-52.021-23.875-82.681 0-7.707 0.562-15.282 1.647-22.687 0.795-4.616 2.027-9.417 3.631-14.045 1.031-0.72 2.212-2.176 3.311-3.695-0.512-1.934-1.098-3.748-1.685-5.507v-427.039c0.585-6.469 0.918-13.993 0.918-21.595 0-1.828-0.019-3.652-0.058-5.471-1.419-7.432-6.778-14.521-8.899-22.923-1.677-8.384-2.636-18.022-2.636-27.884 0-5.594 0.309-11.116 0.91-16.55 1.181-3.034 1.897-7.3 1.897-11.732 0-1.304-0.062-2.593-0.183-3.865-1.819-2.637-3.095-5.963-3.575-9.541 6.78-8.893 11.767-19.414 14.189-30.882 0.072-1.063 0.063-1.725 0.063-2.389 0-5.656 0.671-11.156 1.937-16.424l12.379-11.134c2.931-4.047 3.489-9.155 6.28-13.425s7.285-8.876 10.69-13.369c7.015-5.591 13.173-11.757 18.576-18.55-0.475-1.89-0.854-3.809-0.854-5.816 0-2.834 0.757-5.491 2.079-7.78z"></path>
</svg>
